src/asic/setup_completed/transcript
# Reading C:/intelFPGA/18.1/modelsim_ase/tcl/vsim/pref.tcl
# do compile_run.do
# Model Technology ModelSim - Intel FPGA Edition vmap 10.5b Lib Mapping Utility 2016.10 Oct  5 2016
# vmap work work 
# Copying C:/intelFPGA/18.1/modelsim_ase/win32aloem/../modelsim.ini to modelsim.ini
# Modifying modelsim.ini
# Model Technology ModelSim - Intel FPGA Edition vlog 10.5b Compiler 2016.10 Oct  5 2016
# Start time: 21:42:28 on Aug 08,2024
# vlog -reportprogress 300 -work work setup_completed.v setup_completed_tb.sv 
# -- Compiling module setup_completed
# -- Compiling module setup_completed_tb
# 
# Top level modules:
# 	setup_completed_tb
# End time: 21:42:28 on Aug 08,2024, Elapsed time: 0:00:00
# Errors: 0, Warnings: 0
# vsim work.setup_completed_tb 
# Start time: 21:42:28 on Aug 08,2024
# Loading sv_std.std
# Loading work.setup_completed_tb
# Loading work.setup_completed
# unsigned
# At time   0: i_ref= 341, i_ref_setup=1023, i_ref_out=1023, completed=0
# At time   2: i_ref= 341, i_ref_setup=1021, i_ref_out=1021, completed=0
# At time   3: i_ref= 341, i_ref_setup=1017, i_ref_out=1017, completed=0
# At time   4: i_ref= 341, i_ref_setup=1011, i_ref_out=1011, completed=0
# At time   5: i_ref= 341, i_ref_setup=1003, i_ref_out=1003, completed=0
# At time   6: i_ref= 341, i_ref_setup= 993, i_ref_out= 993, completed=0
# At time   7: i_ref= 341, i_ref_setup= 981, i_ref_out= 981, completed=0
# At time   8: i_ref= 341, i_ref_setup= 967, i_ref_out= 967, completed=0
# At time   9: i_ref= 341, i_ref_setup= 951, i_ref_out= 951, completed=0
# At time  10: i_ref= 341, i_ref_setup= 933, i_ref_out= 933, completed=0
# At time  11: i_ref= 341, i_ref_setup= 913, i_ref_out= 913, completed=0
# At time  12: i_ref= 341, i_ref_setup= 891, i_ref_out= 891, completed=0
# At time  13: i_ref= 341, i_ref_setup= 867, i_ref_out= 867, completed=0
# At time  14: i_ref= 341, i_ref_setup= 841, i_ref_out= 841, completed=0
# At time  15: i_ref= 341, i_ref_setup= 813, i_ref_out= 813, completed=0
# At time  16: i_ref= 341, i_ref_setup= 783, i_ref_out= 783, completed=0
# At time  17: i_ref= 341, i_ref_setup= 751, i_ref_out= 751, completed=0
# At time  18: i_ref= 341, i_ref_setup= 717, i_ref_out= 717, completed=0
# At time  19: i_ref= 341, i_ref_setup= 681, i_ref_out= 681, completed=0
# At time  20: i_ref= 341, i_ref_setup= 643, i_ref_out= 643, completed=0
# At time  21: i_ref= 341, i_ref_setup= 603, i_ref_out= 603, completed=0
# At time  22: i_ref= 341, i_ref_setup= 561, i_ref_out= 561, completed=0
# At time  23: i_ref= 341, i_ref_setup= 517, i_ref_out= 517, completed=0
# At time  24: i_ref= 341, i_ref_setup= 471, i_ref_out= 471, completed=0
# At time  25: i_ref= 341, i_ref_setup= 423, i_ref_out= 423, completed=0
# At time  26: i_ref= 341, i_ref_setup= 373, i_ref_out= 373, completed=0
# At time  27: i_ref= 341, i_ref_setup= 373, i_ref_out= 341, completed=1
# At time  28: i_ref= 341, i_ref_setup= 321, i_ref_out= 341, completed=1
# At time  29: i_ref= 341, i_ref_setup= 267, i_ref_out= 341, completed=1
# At time  30: i_ref= 341, i_ref_setup= 211, i_ref_out= 341, completed=1
# At time  31: i_ref= 341, i_ref_setup= 153, i_ref_out= 341, completed=1
# At time  32: i_ref= 341, i_ref_setup=  93, i_ref_out= 341, completed=1
# At time  33: i_ref= 341, i_ref_setup=  31, i_ref_out= 341, completed=1
# At time  34: i_ref= 341, i_ref_setup= 991, i_ref_out= 341, completed=1
# At time  35: i_ref= 341, i_ref_setup= 925, i_ref_out= 341, completed=1
# At time  36: i_ref= 341, i_ref_setup= 857, i_ref_out= 341, completed=1
# At time  37: i_ref= 341, i_ref_setup= 787, i_ref_out= 341, completed=1
# At time  38: i_ref= 341, i_ref_setup= 715, i_ref_out= 341, completed=1
# At time  39: i_ref= 341, i_ref_setup= 641, i_ref_out= 341, completed=1
# At time  40: i_ref= 341, i_ref_setup= 565, i_ref_out= 341, completed=1
# At time  41: i_ref= 341, i_ref_setup= 487, i_ref_out= 341, completed=1
# At time  42: i_ref= 341, i_ref_setup= 407, i_ref_out= 341, completed=1
# At time  43: i_ref= 341, i_ref_setup= 325, i_ref_out= 341, completed=1
# At time  44: i_ref= 341, i_ref_setup= 241, i_ref_out= 341, completed=1
# At time  45: i_ref= 341, i_ref_setup= 155, i_ref_out= 341, completed=1
# At time  46: i_ref= 341, i_ref_setup=  67, i_ref_out= 341, completed=1
# At time  47: i_ref= 341, i_ref_setup=1001, i_ref_out= 341, completed=1
# At time  48: i_ref= 341, i_ref_setup= 909, i_ref_out= 341, completed=1
# At time  49: i_ref= 341, i_ref_setup= 815, i_ref_out= 341, completed=1
# At time  50: i_ref= 341, i_ref_setup= 719, i_ref_out= 341, completed=1
# At time  51: i_ref= 341, i_ref_setup= 621, i_ref_out= 341, completed=1
# At time  52: i_ref= 341, i_ref_setup= 521, i_ref_out= 341, completed=1
# At time  53: i_ref= 341, i_ref_setup= 419, i_ref_out= 341, completed=1
# At time  54: i_ref= 341, i_ref_setup= 315, i_ref_out= 341, completed=1
# At time  55: i_ref= 341, i_ref_setup= 209, i_ref_out= 341, completed=1
# At time  56: i_ref= 341, i_ref_setup= 101, i_ref_out= 341, completed=1
# At time  57: i_ref= 341, i_ref_setup=1015, i_ref_out= 341, completed=1
# At time  58: i_ref= 341, i_ref_setup=1015, i_ref_out=1015, completed=0
# At time  59: i_ref= 341, i_ref_setup= 903, i_ref_out= 903, completed=0
# At time  60: i_ref= 341, i_ref_setup= 789, i_ref_out= 789, completed=0
# At time  61: i_ref= 341, i_ref_setup= 673, i_ref_out= 673, completed=0
# At time  62: i_ref= 341, i_ref_setup= 555, i_ref_out= 555, completed=0
# At time  63: i_ref= 341, i_ref_setup= 435, i_ref_out= 435, completed=0
# At time  64: i_ref= 341, i_ref_setup= 313, i_ref_out= 313, completed=0
# At time  65: i_ref= 341, i_ref_setup= 189, i_ref_out= 189, completed=0
# At time  66: i_ref= 341, i_ref_setup=  63, i_ref_out=  63, completed=0
# At time  67: i_ref= 341, i_ref_setup= 959, i_ref_out= 959, completed=0
# At time  68: i_ref= 341, i_ref_setup= 829, i_ref_out= 829, completed=0
# At time  69: i_ref= 341, i_ref_setup= 697, i_ref_out= 697, completed=0
# At time  70: i_ref= 341, i_ref_setup= 563, i_ref_out= 563, completed=0
# At time  71: i_ref= 341, i_ref_setup= 427, i_ref_out= 427, completed=0
# At time  72: i_ref= 341, i_ref_setup= 289, i_ref_out= 289, completed=0
# At time  73: i_ref= 341, i_ref_setup= 149, i_ref_out= 149, completed=0
# At time  74: i_ref= 341, i_ref_setup=   7, i_ref_out=   7, completed=0
# At time  75: i_ref= 341, i_ref_setup= 887, i_ref_out= 887, completed=0
# At time  76: i_ref= 341, i_ref_setup= 741, i_ref_out= 741, completed=0
# At time  77: i_ref= 341, i_ref_setup= 593, i_ref_out= 593, completed=0
vsim work.setup_completed
# End time: 21:43:32 on Aug 08,2024, Elapsed time: 0:01:04
# Errors: 0, Warnings: 0
# vsim work.setup_completed 
# Start time: 21:43:32 on Aug 08,2024
# Loading work.setup_completed
vsim work.setup_completed
# End time: 21:44:10 on Aug 08,2024, Elapsed time: 0:00:38
# Errors: 0, Warnings: 0
# vsim work.setup_completed 
# Start time: 21:44:10 on Aug 08,2024
# Loading work.setup_completed
quit -sim
# End time: 21:45:26 on Aug 08,2024, Elapsed time: 0:01:16
# Errors: 0, Warnings: 0
vsim work.setup_completed_tb
# vsim work.setup_completed_tb 
# Start time: 21:45:28 on Aug 08,2024
# Loading sv_std.std
# Loading work.setup_completed_tb
# Loading work.setup_completed
vsim work.setup_completed_tb
# End time: 21:45:29 on Aug 08,2024, Elapsed time: 0:00:01
# Errors: 0, Warnings: 0
# vsim work.setup_completed_tb 
# Start time: 21:45:29 on Aug 08,2024
# Loading sv_std.std
# Loading work.setup_completed_tb
# Loading work.setup_completed
add wave -position insertpoint sim:/setup_completed_tb/*
add wave -position insertpoint sim:/setup_completed_tb/*
do compile_run.do
# End time: 21:45:51 on Aug 08,2024, Elapsed time: 0:00:22
# Errors: 0, Warnings: 0
# ** Warning: (vlib-34) Library already exists at "work".
# Model Technology ModelSim - Intel FPGA Edition vmap 10.5b Lib Mapping Utility 2016.10 Oct  5 2016
# vmap work work 
# Modifying modelsim.ini
# Model Technology ModelSim - Intel FPGA Edition vlog 10.5b Compiler 2016.10 Oct  5 2016
# Start time: 21:45:51 on Aug 08,2024
# vlog -reportprogress 300 -work work setup_completed.v setup_completed_tb.sv 
# -- Compiling module setup_completed
# -- Compiling module setup_completed_tb
# 
# Top level modules:
# 	setup_completed_tb
# End time: 21:45:51 on Aug 08,2024, Elapsed time: 0:00:00
# Errors: 0, Warnings: 0
# vsim work.setup_completed_tb 
# Start time: 21:45:51 on Aug 08,2024
# Loading sv_std.std
# Loading work.setup_completed_tb
# Loading work.setup_completed
# unsigned
# At time   0: i_ref= 341, i_ref_setup=1023, i_ref_out=1023, completed=0
# At time   2: i_ref= 341, i_ref_setup=1021, i_ref_out=1021, completed=0
# At time   3: i_ref= 341, i_ref_setup=1017, i_ref_out=1017, completed=0
# At time   4: i_ref= 341, i_ref_setup=1011, i_ref_out=1011, completed=0
# At time   5: i_ref= 341, i_ref_setup=1003, i_ref_out=1003, completed=0
# At time   6: i_ref= 341, i_ref_setup= 993, i_ref_out= 993, completed=0
# At time   7: i_ref= 341, i_ref_setup= 981, i_ref_out= 981, completed=0
# At time   8: i_ref= 341, i_ref_setup= 967, i_ref_out= 967, completed=0
# At time   9: i_ref= 341, i_ref_setup= 951, i_ref_out= 951, completed=0
# At time  10: i_ref= 341, i_ref_setup= 933, i_ref_out= 933, completed=0
# At time  11: i_ref= 341, i_ref_setup= 913, i_ref_out= 913, completed=0
# At time  12: i_ref= 341, i_ref_setup= 891, i_ref_out= 891, completed=0
# At time  13: i_ref= 341, i_ref_setup= 867, i_ref_out= 867, completed=0
# At time  14: i_ref= 341, i_ref_setup= 841, i_ref_out= 841, completed=0
# At time  15: i_ref= 341, i_ref_setup= 813, i_ref_out= 813, completed=0
# At time  16: i_ref= 341, i_ref_setup= 783, i_ref_out= 783, completed=0
# At time  17: i_ref= 341, i_ref_setup= 751, i_ref_out= 751, completed=0
# At time  18: i_ref= 341, i_ref_setup= 717, i_ref_out= 717, completed=0
# At time  19: i_ref= 341, i_ref_setup= 681, i_ref_out= 681, completed=0
# At time  20: i_ref= 341, i_ref_setup= 643, i_ref_out= 643, completed=0
# At time  21: i_ref= 341, i_ref_setup= 603, i_ref_out= 603, completed=0
# At time  22: i_ref= 341, i_ref_setup= 561, i_ref_out= 561, completed=0
# At time  23: i_ref= 341, i_ref_setup= 517, i_ref_out= 517, completed=0
# At time  24: i_ref= 341, i_ref_setup= 471, i_ref_out= 471, completed=0
# At time  25: i_ref= 341, i_ref_setup= 423, i_ref_out= 423, completed=0
# At time  26: i_ref= 341, i_ref_setup= 373, i_ref_out= 373, completed=0
# At time  27: i_ref= 341, i_ref_setup= 373, i_ref_out= 341, completed=1
# At time  28: i_ref= 341, i_ref_setup= 321, i_ref_out= 341, completed=1
# At time  29: i_ref= 341, i_ref_setup= 267, i_ref_out= 341, completed=1
# At time  30: i_ref= 341, i_ref_setup= 211, i_ref_out= 341, completed=1
# At time  31: i_ref= 341, i_ref_setup= 153, i_ref_out= 341, completed=1
# At time  32: i_ref= 341, i_ref_setup=  93, i_ref_out= 341, completed=1
# At time  33: i_ref= 341, i_ref_setup=  31, i_ref_out= 341, completed=1
# At time  34: i_ref= 341, i_ref_setup= 991, i_ref_out= 341, completed=1
# At time  35: i_ref= 341, i_ref_setup= 925, i_ref_out= 341, completed=1
# At time  36: i_ref= 341, i_ref_setup= 857, i_ref_out= 341, completed=1
# At time  37: i_ref= 341, i_ref_setup= 787, i_ref_out= 341, completed=1
# At time  38: i_ref= 341, i_ref_setup= 715, i_ref_out= 341, completed=1
# At time  39: i_ref= 341, i_ref_setup= 641, i_ref_out= 341, completed=1
# At time  40: i_ref= 341, i_ref_setup= 565, i_ref_out= 341, completed=1
# At time  41: i_ref= 341, i_ref_setup= 487, i_ref_out= 341, completed=1
# At time  42: i_ref= 341, i_ref_setup= 407, i_ref_out= 341, completed=1
# At time  43: i_ref= 341, i_ref_setup= 325, i_ref_out= 341, completed=1
# At time  44: i_ref= 341, i_ref_setup= 241, i_ref_out= 341, completed=1
# At time  45: i_ref= 341, i_ref_setup= 155, i_ref_out= 341, completed=1
# At time  46: i_ref= 341, i_ref_setup=  67, i_ref_out= 341, completed=1
# At time  47: i_ref= 341, i_ref_setup=1001, i_ref_out= 341, completed=1
# At time  48: i_ref= 341, i_ref_setup= 909, i_ref_out= 341, completed=1
# At time  49: i_ref= 341, i_ref_setup= 815, i_ref_out= 341, completed=1
# At time  50: i_ref= 341, i_ref_setup= 719, i_ref_out= 341, completed=1
# At time  51: i_ref= 341, i_ref_setup= 621, i_ref_out= 341, completed=1
# At time  52: i_ref= 341, i_ref_setup= 521, i_ref_out= 341, completed=1
# At time  53: i_ref= 341, i_ref_setup= 419, i_ref_out= 341, completed=1
# At time  54: i_ref= 341, i_ref_setup= 315, i_ref_out= 341, completed=1
# At time  55: i_ref= 341, i_ref_setup= 209, i_ref_out= 341, completed=1
# At time  56: i_ref= 341, i_ref_setup= 101, i_ref_out= 341, completed=1
# At time  57: i_ref= 341, i_ref_setup=1015, i_ref_out= 341, completed=1
# At time  58: i_ref= 341, i_ref_setup=1015, i_ref_out=1015, completed=0
# At time  59: i_ref= 341, i_ref_setup= 903, i_ref_out= 903, completed=0
# At time  60: i_ref= 341, i_ref_setup= 789, i_ref_out= 789, completed=0
# At time  61: i_ref= 341, i_ref_setup= 673, i_ref_out= 673, completed=0
# At time  62: i_ref= 341, i_ref_setup= 555, i_ref_out= 555, completed=0
# At time  63: i_ref= 341, i_ref_setup= 435, i_ref_out= 435, completed=0
# At time  64: i_ref= 341, i_ref_setup= 313, i_ref_out= 313, completed=0
# At time  65: i_ref= 341, i_ref_setup= 189, i_ref_out= 189, completed=0
# At time  66: i_ref= 341, i_ref_setup=  63, i_ref_out=  63, completed=0
# At time  67: i_ref= 341, i_ref_setup= 959, i_ref_out= 959, completed=0
# At time  68: i_ref= 341, i_ref_setup= 829, i_ref_out= 829, completed=0
# At time  69: i_ref= 341, i_ref_setup= 697, i_ref_out= 697, completed=0
# At time  70: i_ref= 341, i_ref_setup= 563, i_ref_out= 563, completed=0
# At time  71: i_ref= 341, i_ref_setup= 427, i_ref_out= 427, completed=0
# At time  72: i_ref= 341, i_ref_setup= 289, i_ref_out= 289, completed=0
# At time  73: i_ref= 341, i_ref_setup= 149, i_ref_out= 149, completed=0
# At time  74: i_ref= 341, i_ref_setup=   7, i_ref_out=   7, completed=0
# At time  75: i_ref= 341, i_ref_setup= 887, i_ref_out= 887, completed=0
# At time  76: i_ref= 341, i_ref_setup= 741, i_ref_out= 741, completed=0
# At time  77: i_ref= 341, i_ref_setup= 593, i_ref_out= 593, completed=0
# End time: 22:55:02 on Aug 08,2024, Elapsed time: 1:09:11
# Errors: 0, Warnings: 0
